﻿Build started 2016.03.15. 21:29:44.
     1>Project "C:\Users\Matiss\Desktop\bak_darbs\Vision\Vision\Vision.vcxproj" on node 2 (Rebuild target(s)).
     1>ClCompile:
         C:\Program Files (x86)\Microsoft Visual Studio 12.0\VC\bin\x86_amd64\CL.exe /c /IC:\opencv\build\include /Zi /nologo /W3 /WX- /sdl /Od /D _MBCS /Gm /EHsc /RTC1 /MDd /GS /fp:precise /Zc:wchar_t /Zc:forScope /Fo"x64\Debug\\" /Fd"x64\Debug\vc120.pdb" /Gd /TP /errorReport:prompt ImgHeightMap.cpp SkeletStruct.cpp ThreeDMap.cpp erodeDialate.cpp Filter.cpp ImgProc.cpp main.cpp Structs.cpp Utility.cpp
         Utility.cpp
     1>Utility.cpp(47): warning C4244: 'argument' : conversion from 'time_t' to 'unsigned int', possible loss of data
         Structs.cpp
         main.cpp
     1>C:\opencv\build\include\opencv2/imgproc.hpp(635): warning C4819: The file contains a character that cannot be represented in the current code page (1257). Save the file in Unicode format to prevent data loss
     1>C:\opencv\build\include\opencv2/imgproc.hpp(3514): warning C4819: The file contains a character that cannot be represented in the current code page (1257). Save the file in Unicode format to prevent data loss
     1>main.cpp(9): warning C4067: unexpected tokens following preprocessor directive - expected a newline
     1>c:\users\matiss\desktop\bak_darbs\vision\vision\Utility.cpp(47): warning C4244: 'argument' : conversion from 'time_t' to 'unsigned int', possible loss of data
     1>main.cpp(10): warning C4067: unexpected tokens following preprocessor directive - expected a newline
     1>c:\users\matiss\desktop\bak_darbs\vision\vision\ImgProc.cpp(8): warning C4067: unexpected tokens following preprocessor directive - expected a newline
     1>c:\users\matiss\desktop\bak_darbs\vision\vision\ImgProc.cpp(9): warning C4067: unexpected tokens following preprocessor directive - expected a newline
     1>c:\users\matiss\desktop\bak_darbs\vision\vision\ImgProc.cpp(216): warning C4244: 'initializing' : conversion from 'double' to 'int', possible loss of data
     1>c:\users\matiss\desktop\bak_darbs\vision\vision\ImgProc.cpp(256): warning C4267: '+=' : conversion from 'size_t' to 'int', possible loss of data
     1>c:\users\matiss\desktop\bak_darbs\vision\vision\ImgProc.cpp(284): warning C4267: '+=' : conversion from 'size_t' to 'int', possible loss of data
     1>main.cpp(11): warning C4067: unexpected tokens following preprocessor directive - expected a newline
     1>main.cpp(12): warning C4067: unexpected tokens following preprocessor directive - expected a newline
     1>main.cpp(13): warning C4067: unexpected tokens following preprocessor directive - expected a newline
     1>c:\users\matiss\desktop\bak_darbs\vision\vision\ThreeDMap.cpp(11): warning C4067: unexpected tokens following preprocessor directive - expected a newline
     1>c:\users\matiss\desktop\bak_darbs\vision\vision\ThreeDMap.cpp(12): warning C4067: unexpected tokens following preprocessor directive - expected a newline
     1>c:\users\matiss\desktop\bak_darbs\vision\vision\ThreeDMap.cpp(13): warning C4067: unexpected tokens following preprocessor directive - expected a newline
     1>c:\users\matiss\desktop\bak_darbs\vision\vision\SkeletStruct.cpp(52): warning C4018: '>=' : signed/unsigned mismatch
     1>c:\users\matiss\desktop\bak_darbs\vision\vision\ThreeDMap.cpp(14): warning C4067: unexpected tokens following preprocessor directive - expected a newline
     1>c:\users\matiss\desktop\bak_darbs\vision\vision\ImgHeightMap.cpp(7): warning C4067: unexpected tokens following preprocessor directive - expected a newline
     1>c:\users\matiss\desktop\bak_darbs\vision\vision\ImgHeightMap.cpp(8): warning C4067: unexpected tokens following preprocessor directive - expected a newline
         ImgProc.cpp
     1>C:\opencv\build\include\opencv2/imgproc.hpp(635): warning C4819: The file contains a character that cannot be represented in the current code page (1257). Save the file in Unicode format to prevent data loss
     1>C:\opencv\build\include\opencv2/imgproc.hpp(3514): warning C4819: The file contains a character that cannot be represented in the current code page (1257). Save the file in Unicode format to prevent data loss
     1>ImgProc.cpp(8): warning C4067: unexpected tokens following preprocessor directive - expected a newline
     1>ImgProc.cpp(9): warning C4067: unexpected tokens following preprocessor directive - expected a newline
     1>c:\users\matiss\desktop\bak_darbs\vision\vision\Utility.cpp(47): warning C4244: 'argument' : conversion from 'time_t' to 'unsigned int', possible loss of data
     1>ImgProc.cpp(216): warning C4244: 'initializing' : conversion from 'double' to 'int', possible loss of data
     1>ImgProc.cpp(256): warning C4267: '+=' : conversion from 'size_t' to 'int', possible loss of data
     1>ImgProc.cpp(284): warning C4267: '+=' : conversion from 'size_t' to 'int', possible loss of data
         Filter.cpp
     1>C:\opencv\build\include\opencv2/imgproc.hpp(635): warning C4819: The file contains a character that cannot be represented in the current code page (1257). Save the file in Unicode format to prevent data loss
     1>C:\opencv\build\include\opencv2/imgproc.hpp(3514): warning C4819: The file contains a character that cannot be represented in the current code page (1257). Save the file in Unicode format to prevent data loss
         erodeDialate.cpp
     1>C:\opencv\build\include\opencv2/imgproc.hpp(635): warning C4819: The file contains a character that cannot be represented in the current code page (1257). Save the file in Unicode format to prevent data loss
     1>C:\opencv\build\include\opencv2/imgproc.hpp(3514): warning C4819: The file contains a character that cannot be represented in the current code page (1257). Save the file in Unicode format to prevent data loss
         ThreeDMap.cpp
     1>C:\opencv\build\include\opencv2/imgproc.hpp(635): warning C4819: The file contains a character that cannot be represented in the current code page (1257). Save the file in Unicode format to prevent data loss
     1>C:\opencv\build\include\opencv2/imgproc.hpp(3514): warning C4819: The file contains a character that cannot be represented in the current code page (1257). Save the file in Unicode format to prevent data loss
     1>ThreeDMap.cpp(11): warning C4067: unexpected tokens following preprocessor directive - expected a newline
     1>ThreeDMap.cpp(12): warning C4067: unexpected tokens following preprocessor directive - expected a newline
     1>c:\users\matiss\desktop\bak_darbs\vision\vision\Utility.cpp(47): warning C4244: 'argument' : conversion from 'time_t' to 'unsigned int', possible loss of data
     1>ThreeDMap.cpp(13): warning C4067: unexpected tokens following preprocessor directive - expected a newline
     1>c:\users\matiss\desktop\bak_darbs\vision\vision\SkeletStruct.cpp(52): warning C4018: '>=' : signed/unsigned mismatch
     1>ThreeDMap.cpp(14): warning C4067: unexpected tokens following preprocessor directive - expected a newline
     1>c:\users\matiss\desktop\bak_darbs\vision\vision\ImgHeightMap.cpp(7): warning C4067: unexpected tokens following preprocessor directive - expected a newline
     1>c:\users\matiss\desktop\bak_darbs\vision\vision\ImgHeightMap.cpp(8): warning C4067: unexpected tokens following preprocessor directive - expected a newline
         SkeletStruct.cpp
     1>C:\opencv\build\include\opencv2/imgproc.hpp(635): warning C4819: The file contains a character that cannot be represented in the current code page (1257). Save the file in Unicode format to prevent data loss
     1>C:\opencv\build\include\opencv2/imgproc.hpp(3514): warning C4819: The file contains a character that cannot be represented in the current code page (1257). Save the file in Unicode format to prevent data loss
     1>SkeletStruct.cpp(52): warning C4018: '>=' : signed/unsigned mismatch
         ImgHeightMap.cpp
     1>C:\opencv\build\include\opencv2/imgproc.hpp(635): warning C4819: The file contains a character that cannot be represented in the current code page (1257). Save the file in Unicode format to prevent data loss
     1>C:\opencv\build\include\opencv2/imgproc.hpp(3514): warning C4819: The file contains a character that cannot be represented in the current code page (1257). Save the file in Unicode format to prevent data loss
     1>ImgHeightMap.cpp(7): warning C4067: unexpected tokens following preprocessor directive - expected a newline
     1>ImgHeightMap.cpp(8): warning C4067: unexpected tokens following preprocessor directive - expected a newline
     1>c:\users\matiss\desktop\bak_darbs\vision\vision\Utility.cpp(47): warning C4244: 'argument' : conversion from 'time_t' to 'unsigned int', possible loss of data
         Generating Code...
       Link:
         C:\Program Files (x86)\Microsoft Visual Studio 12.0\VC\bin\x86_amd64\link.exe /ERRORREPORT:PROMPT /OUT:"C:\Users\Matiss\Desktop\bak_darbs\Vision\x64\Debug\Vision.exe" /INCREMENTAL /NOLOGO /LIBPATH:C:\opencv\build\x64\vc14\lib opencv_world310.lib kernel32.lib user32.lib gdi32.lib winspool.lib comdlg32.lib advapi32.lib shell32.lib ole32.lib oleaut32.lib uuid.lib odbc32.lib odbccp32.lib /MANIFEST /MANIFESTUAC:"level='asInvoker' uiAccess='false'" /manifest:embed /DEBUG /PDB:"C:\Users\Matiss\Desktop\bak_darbs\Vision\x64\Debug\Vision.pdb" /TLBID:1 /DYNAMICBASE /NXCOMPAT /IMPLIB:"C:\Users\Matiss\Desktop\bak_darbs\Vision\x64\Debug\Vision.lib" /MACHINE:X64 x64\Debug\ImgHeightMap.obj
         x64\Debug\SkeletStruct.obj
         x64\Debug\ThreeDMap.obj
         x64\Debug\erodeDialate.obj
         x64\Debug\Filter.obj
         x64\Debug\ImgProc.obj
         x64\Debug\main.obj
         x64\Debug\Structs.obj
         x64\Debug\Utility.obj
         Vision.vcxproj -> C:\Users\Matiss\Desktop\bak_darbs\Vision\x64\Debug\Vision.exe
     1>Done Building Project "C:\Users\Matiss\Desktop\bak_darbs\Vision\Vision\Vision.vcxproj" (Rebuild target(s)).

Build succeeded.

Time Elapsed 00:00:05.52
