^C:\USERS\MATISS\DESKTOP\BAK_DARBS\VISION\VISION\X64\RELEASE\ERODEDIALATE.OBJ|C:\USERS\MATISS\DESKTOP\BAK_DARBS\VISION\VISION\X64\RELEASE\FILTER.OBJ|C:\USERS\MATISS\DESKTOP\BAK_DARBS\VISION\VISION\X64\RELEASE\IMGHEIGHTMAP.OBJ|C:\USERS\MATISS\DESKTOP\BAK_DARBS\VISION\VISION\X64\RELEASE\IMGPROC.OBJ|C:\USERS\MATISS\DESKTOP\BAK_DARBS\VISION\VISION\X64\RELEASE\MAIN.OBJ|C:\USERS\MATISS\DESKTOP\BAK_DARBS\VISION\VISION\X64\RELEASE\SKELETSTRUCT.OBJ|C:\USERS\MATISS\DESKTOP\BAK_DARBS\VISION\VISION\X64\RELEASE\STRUCTS.OBJ|C:\USERS\MATISS\DESKTOP\BAK_DARBS\VISION\VISION\X64\RELEASE\THREEDMAP.OBJ|C:\USERS\MATISS\DESKTOP\BAK_DARBS\VISION\VISION\X64\RELEASE\UTILITY.OBJ
C:\USERS\MATISS\DESKTOP\BAK_DARBS\VISION\X64\RELEASE\VISION.EXE
C:\USERS\MATISS\DESKTOP\BAK_DARBS\VISION\X64\RELEASE\VISION.PDB
